1 10 20
100 200 125
201 210 89
900 1000 174
728 444 171
732 420 171
381 270 144
919 687 179
348 691 145
214 350 144
859 625 171
859 183 171
570 489 142
827 584 171
543 473 142
143 622 144
715 635 171
930 260 179
293 239 123
442 717 171
731 703 171
10 939 179
292 38 128
787 128 171
654 268 145
574 771 171
600 46 144
455 415 134
596 926 179
672 187 145
2 97 119
695 406 145
904 613 179
791 346 171
558 460 142
710 21 171
313 478 144
239 312 123
476 413 134
665 411 145
814 866 148
72 743 171
855 713 153
444 712 171
322 500 144
549 404 142
459 352 134
510 954 179
734 371 171
684 853 171
886 861 179
688 215 145
568 97 144
79 795 171
503 889 179
44 851 171
150 890 179
968 122 179
209 903 179
680 525 145
281 59 128
775 875 179
617 581 132
647 171 144
71 652 145
893 858 179
16 551 144
921 870 179
788 899 179
247 946 179
801 405 171
591 296 144
189 744 171
220 971 179
632 793 171
135 61 122
812 989 179
322 343 144
103 750 171
1 1 1
97 2 119
36794 93240 351
13910 93144 351
34337 44388 324
40500 52949 340
12096 81751 351
82284 90170 333
38236 62371 340
79760 82078 320
662 97232 351
39044 43588 306
316 50421 324
93348 97642 328
61192 95677 351
6607 85729 351
40840 62257 340
4509 37368 324
8085 50510 324
30729 98662 351
27803 79850 351
8737 55457 340
24423 35844 324
13846 45078 324
46883 74354 340
23244 45449 324
34208 65637 340
36567 39855 306
23847 75129 340
66241 93081 351
37604 49734 314
80320 93655 333
28142 63134 340
8031 54842 340
5447 14848 276
28240 30394 272
13002 48291 324
31778 41218 324
43373 58253 340
36337 90187 351
27006 54073 340
2104 81167 351
8772 31899 308
15441 63421 340
15449 37844 324
1319 35386 311
23953 41089 324
27707 97676 351
71974 85363 351
25588 54285 340
14922 18001 279
53008 54834 322
18774 42965 324
10745 37548 324
46318 72115 340
5810 12666 268
12469 68773 340
35561 85063 351
468 7063 262
34823 99695 351
20834 82308 351
23257 68006 340
7389 33693 308
37921 49624 314
40096 62529 340
31991 69367 340
24412 43203 324
43144 74235 340
49358 99937 351
12575 89374 351
44319 51355 314
68293 72269 325
23458 30434 308
3492 75101 340
29579 73672 340
47497 56151 340
26987 50394 324
