95 431 144
633 401 142
228 523 144
517 694 145
120 3 119
77 661 145
162 329 144
787 366 171
466 443 129
531 279 144
558 236 144
831 78 171
676 177 145
964 772 179
430 756 171
531 201 144
447 589 142
133 150 117
73 853 171
47 994 179
202 495 144
192 683 145
188 922 179
594 400 142
373 844 171
188 389 144
943 221 179
731 406 171
153 749 171
438 603 142
318 206 131
185 473 144
367 772 171
654 895 179
379 731 171
875 153 179
67 112 119
536 554 137
762 280 171
652 118 145
711 761 140
67 447 144
798 177 171
811 521 171
603 46 144
948 481 179
630 419 142
60 516 144
242 237 97
172 386 144
203 621 144
520 67 144
160 879 179
648 292 144
508 853 171
254 390 144
624 47 144
274 765 171
682 619 145
856 307 171
931 619 179
68 690 145
542 163 144
834 639 171
496 832 171
614 212 144
435 912 179
71 322 131
199 222 120
749 120 171
924 12 179
436 326 144
246 493 144
619 999 179
763 426 171
118 780 171
532 929 179
883 605 179
753 666 171
603 532 137
982 528 179
830 866 148
77 620 144
97 168 122
372 417 134
643 22 144
646 286 144
703 87 171
687 404 145
342 158 144
756 237 171
527 39 144
103 105 88
432 834 171
510 509 49
526 153 144
716 292 171
103 452 144
252 217 128
459 343 134
558 307 144
191 314 131
168 763 171
463 755 171
897 50 179
165 20 122
239 927 179
474 794 171
767 81 171
618 331 142
555 824 171
571 100 144
308 584 144
404 351 126
145 61 122
387 276 144
764 983 179
674 717 171
423 858 171
26 364 144
280 890 179
72 2 113
407 951 179
157 311 128
640 425 142
203 260 128
64 382 144
919 981 174
4 903 179
442 950 179
861 763 153
15 865 171
781 742 153
237 593 144
833 33 171
483 961 179
122 661 145
909 626 179
820 782 135
743 248 171
284 995 179
974 778 179
842 984 179
373 300 144
331 201 144
138 758 171
890 180 179
346 568 142
991 86 179
150 185 125
